    {
    "packageDirectories": [
        {
            "path": "force-app",
            "default": true,
            "package": "FieldPackage",
            "versionName": "ver 0.1",
            "versionNumber": "0.1.0.NEXT"
        }
    ],
    "namespace": "",
    "sfdcLoginUrl": "https://login.salesforce.com",
    "sourceApiVersion": "48.0",
    "packageAliases": {
        "FieldPackage": "0Ho5I000000CaRWSA0"
    }
}